<?xml version="1.0" encoding="UTF-8"?>
<svg width="288px" height="213px" viewBox="0 0 288 213" version="1.1" xmlns="http://www.w3.org/2000/svg" xmlns:xlink="http://www.w3.org/1999/xlink">
    <!-- Generator: Sketch 50.2 (55047) - http://www.bohemiancoding.com/sketch -->
    <title>1 Fundamentals/Illustrations/Molecules/Room</title>
    <desc>Created with Sketch.</desc>
    <defs></defs>
    <g id="2.-Fundamentals" stroke="none" stroke-width="1" fill="none" fill-rule="evenodd">
        <g id="Illustrations" transform="translate(-245.000000, -1755.000000)">
            <g id="Molecules" transform="translate(100.000000, 1470.000000)">
                <g id="1-Fundamentals/Illustrations/Molecules/Room" transform="translate(145.000000, 285.000000)">
                    <g id="Fundamentals/Illustrations/Molecules/Room">
                        <polygon id="Shape" fill="#B7CEE1" fill-rule="nonzero" points="287.082118 142.351668 157.77479 212.527798 2.63511666 162.868666 132.206981 94.9011119"></polygon>
                        <polygon id="Shape" fill="#E0EAF2" fill-rule="nonzero" points="132.206981 94.9011119 2.63511666 162.868666 0.291195771 69.1200328 132.206981 0"></polygon>
                        <polygon id="Shape" fill="#CDDCEA" fill-rule="nonzero" points="287.082118 142.351668 132.206981 94.9011119 132.206981 0 287.082118 47.450556"></polygon>
                        <polygon id="Shape" fill="#9DBDD8" fill-rule="nonzero" points="251.986876 86.1119213 251.984825 131.602032 234.277251 126.171847 234.158312 80.5874043"></polygon>
                        <polygon id="Shape" fill="#F3F7F9" fill-rule="nonzero" points="85.351121 54.0598797 85.4618575 94.7268046 108.035682 82.1110554 107.924945 42.2972111"></polygon>
                        <rect id="Rectangle-path" fill="#E0EAF2" fill-rule="nonzero" x="95.7931553" y="44.3868483" width="1.50519504" height="51.2853172"></rect>
                        <polygon id="Shape" fill="#E0EAF2" fill-rule="nonzero" points="79.0329931 73.2603445 78.3603719 71.9130514 115.651887 53.1985964 116.324508 54.5438389"></polygon>
                        <path d="M85.3654758,61.5673988 C85.3654758,61.5673988 85.0066077,54.2752005 90.4921619,51.3734962 C95.977716,48.4717918 87.0982957,43.7490886 87.0982957,43.7490886 L78.391132,60.1975483 L85.3654758,61.5673988 Z" id="Shape" fill="#E0EAF2" fill-rule="nonzero"></path>
                        <path d="M102.281489,45.2460809 C103.922029,44.2781626 107.777297,44.6308786 107.9393,49.4643183 L113.703746,38.1035818 L100.802953,35.3618301 C100.802953,35.3618301 99.9375684,46.6220835 102.281489,45.2460809 Z" id="Shape" fill="#E0EAF2" fill-rule="nonzero"></path>
                        <polygon id="Shape" fill="#F3F7F9" fill-rule="nonzero" points="32.9994532 82.2156398 33.1101896 122.882565 55.6840139 110.266816 55.5732774 70.4529712"></polygon>
                        <rect id="Rectangle-path" fill="#E0EAF2" fill-rule="nonzero" x="43.4394367" y="72.5426085" width="1.50519504" height="51.2853172"></rect>
                        <polygon id="Shape" fill="#E0EAF2" fill-rule="nonzero" points="26.6792745 101.416105 26.0066533 100.068812 63.2981681 81.3543565 63.9707893 82.7016497"></polygon>
                        <path d="M33.0158585,89.723159 C33.0158585,89.723159 32.6569905,82.4309606 38.1425447,79.5292563 C43.6280988,76.627552 34.7486785,71.9048487 34.7486785,71.9048487 L26.0435654,88.3533084 L33.0158585,89.723159 Z" id="Shape" fill="#E0EAF2" fill-rule="nonzero"></path>
                        <path d="M49.9298214,73.401841 C51.5703609,72.4339227 55.4256289,72.7866387 55.5876322,77.6200784 L61.352078,66.259342 L48.4512851,63.5175902 C48.4512851,63.5175902 47.5756471,74.7778436 49.9298214,73.401841 Z" id="Shape" fill="#E0EAF2" fill-rule="nonzero"></path>
                        <polygon id="Shape" fill="#B7CEE1" fill-rule="nonzero" points="85.1665603 96.2402023 85.1111921 97.4111374 88.23642 99.0291196 112.231362 85.6382155 112.202652 84.6887532 108.269459 83.2655851"></polygon>
                        <polygon id="Shape" fill="#E5EEF4" fill-rule="nonzero" points="85.1665603 96.2402023 88.254876 97.9463635 112.202652 84.6887532 108.269459 83.2655851"></polygon>
                        <polygon id="Shape" fill="#B7CEE1" fill-rule="nonzero" points="33.4382975 124.531307 33.3829293 125.704293 36.5061065 127.322275 60.5010481 113.92932 60.4743894 112.979858 56.5391451 111.55669"></polygon>
                        <polygon id="Shape" fill="#E5EEF4" fill-rule="nonzero" points="33.4382975 124.531307 36.5266132 126.239519 60.4743894 112.979858 56.5391451 111.55669"></polygon>
                        <polygon id="Shape" fill="#78A6CA" fill-rule="nonzero" points="234.158312 80.5874043 237.156398 81.6250456 237.507063 123.360372 234.277251 126.171847"></polygon>
                        <polyline id="Shape" fill="#D5E2ED" fill-rule="nonzero" points="132.206981 0 114.128236 104.274745 132.206981 94.9011119 132.206981 0"></polyline>
                        <path d="M104.695133,44.8482501 C104.695133,44.8482501 105.644595,46.0478946 105.699964,48.8655213 C105.757382,51.7528709 105.802497,58.1284178 105.802497,58.1284178 L107.951604,57.0538644 L107.881881,49.0111192 C107.881881,49.0111192 107.931097,45.7956617 104.695133,44.8482501 Z" id="Shape" fill="#CDDCEA" fill-rule="nonzero"></path>
                        <polygon id="Shape" fill="#CDDCEA" fill-rule="nonzero" points="105.831207 59.9063525 106.067034 82.875957 108.021327 83.140494 107.951604 58.7415694"></polygon>
                        <polygon id="Shape" fill="#CDDCEA" fill-rule="nonzero" points="53.60463 88.0293019 53.6948596 111.640767 55.6840139 110.266816 55.4871491 86.8993802"></polygon>
                        <path d="M52.4665057,72.9711994 C52.4665057,72.9711994 53.4159679,74.170844 53.4713361,76.9884707 C53.528755,79.8758203 53.3031808,86.3641542 53.3031808,86.3641542 L55.4871491,85.1337495 L55.5363653,77.1197138 C55.5363653,77.1197138 55.7024699,73.918611 52.4665057,72.9711994 Z" id="Shape" fill="#CDDCEA" fill-rule="nonzero"></path>
                        <path d="M116.550913,92.6289646 L116.340913,90.5659861" id="Shape" fill="#FFFFFF" fill-rule="nonzero"></path>
                        <path d="M287.131334,142.386529 L287.061611,47.5551404 L156.671528,116.993028 L0.555732774,69.5014583 L0,69.3312523 L2.51207619,162.739473 L2.51207619,163.036821 L157.374909,212.843602 L157.901932,213.022011 L158.16852,212.876413 L286.850392,142.603901 L286.821682,142.552634 L286.90576,142.507519 L287.131334,142.386529 Z M286.224936,48.9475483 L286.294659,141.890266 L158.236192,211.764947 L157.130879,117.694358 L286.224936,48.9475483 Z M3.34259934,162.413416 L0.86743529,70.4714273 L156.234734,117.739473 L157.055004,186.955888 L157.329794,211.945406 L3.34259934,162.413416 Z" id="Shape" fill="#FFFFFF" fill-rule="nonzero"></path>
                    </g>
                </g>
            </g>
        </g>
    </g>
</svg>