<?xml version="1.0" encoding="UTF-8"?>
<svg width="21px" height="55px" viewBox="0 0 21 55" version="1.1" xmlns="http://www.w3.org/2000/svg" xmlns:xlink="http://www.w3.org/1999/xlink">
    <!-- Generator: Sketch 50.2 (55047) - http://www.bohemiancoding.com/sketch -->
    <title>1 Fundamentals/Illustrations/Molecules/SmallTree</title>
    <desc>Created with Sketch.</desc>
    <defs></defs>
    <g id="2.-Fundamentals" stroke="none" stroke-width="1" fill="none" fill-rule="evenodd">
        <g id="Illustrations" transform="translate(-568.000000, -1841.000000)">
            <g id="Molecules" transform="translate(100.000000, 1470.000000)">
                <g id="1-Fundamentals/Illustrations/Molecules/SmallTree" transform="translate(468.000000, 371.000000)">
                    <g id="Fundamentals/Illustrations/Molecules/SmallTree">
                        <ellipse id="Oval" fill="#78A6CA" fill-rule="nonzero" opacity="0.4" cx="12.7816172" cy="53.220418" rx="6.72906193" ry="1.70168899"></ellipse>
                        <path d="M16.9391959,26.2852205 C13.5111832,27.3615672 11.9250878,23.8653354 12.6963433,22.4062034 C13.4391741,21.0020257 15.1313882,20.3217291 14.0607264,18.1955654 C11.7242203,13.5396079 16.6454745,13.8049046 15.5767077,12.1430101 C14.1137858,9.86903817 9.6473259,12.8214117 10.3977366,9.11104752 C10.8013667,7.13837688 13.2781011,5.01789805 12.7721423,3.57771583 C11.5309327,0.0454794386 8.51033994,-1.33226763e-15 7.01141344,0.30130128 C4.59531827,0.771255479 -0.0303196257,2.20196282 3.91691665,10.0661157 L3.94723627,10.1210701 C3.9851358,10.1968691 4.02872027,10.2764581 4.06851477,10.3541522 C4.57068357,11.341435 5.96349138,14.5325756 2.23038747,13.3084207 C-0.481324058,12.4177817 -0.468059222,15.4118447 0.934223467,16.3403833 C2.33650616,17.2689218 4.68248719,16.0599267 4.83787528,21.2786923 C4.83787528,21.2786923 4.81892551,22.758669 3.15324107,22.5255869 C1.48755664,22.2925048 1.56146072,25.7659969 2.96374341,26.3894442 C4.3660261,27.0128915 5.6299755,26.9579372 4.57826348,28.0039643 C2.54305861,29.9141007 -0.0947488303,32.9309035 2.71929143,35.1328663 C6.30269219,37.9374317 5.59965587,36.535149 7.50789732,39.4913125 C9.41613876,42.447476 10.208239,43.4878181 12.7001332,38.8148058 C15.1920275,34.1417935 16.9903603,35.074122 19.0160902,31.9587805 C21.0418202,28.8434389 20.2288753,25.2524583 16.9391959,26.2852205 Z" id="Shape" fill="#B7CEE1" fill-rule="nonzero"></path>
                        <path d="M5.38741849,45.0056944 L5.73988414,52.5135917 C5.76553501,53.1107462 6.10499006,53.6498383 6.63241812,53.9310342 C8.89706523,55.1518593 11.6402599,55.0753386 13.8333292,53.7301667 C14.2608085,53.4785109 14.5323598,53.0280637 14.5553153,52.5325415 L14.9134659,45.0511738 L5.38741849,45.0056944 Z" id="Shape" fill="#FFFFFF" fill-rule="nonzero"></path>
                        <ellipse id="Oval" fill="#85AECF" fill-rule="nonzero" cx="10.1532847" cy="45.0492789" rx="4.76586617" ry="1.7092689"></ellipse>
                        <path d="M9.72501994,14.7107034 L9.29486025,44.636174 C9.29480569,44.7896114 9.35677683,44.9365556 9.46669157,45.0436154 C9.57660632,45.1506752 9.72513015,45.2087586 9.87851305,45.2046669 C10.1813304,45.1895074 10.4189606,44.9393703 10.4185814,44.636174 L10.2290837,30.4238494 L10.1930792,14.8490367 L9.72501994,14.7107034 Z" id="Shape" fill="#FFFFFF" fill-rule="nonzero"></path>
                        <polyline id="Shape" fill="#FFFFFF" fill-rule="nonzero" points="13.689311 28.5554025 13.7328955 28.7733248 10.0528509 31.0075022 10.0964354 30.3954248"></polyline>
                        <polyline id="Shape" fill="#FFFFFF" fill-rule="nonzero" points="6.58883366 20.6685098 6.54903915 20.8864322 9.85577333 23.1225046 9.8178738 22.5085321"></polyline>
                    </g>
                </g>
            </g>
        </g>
    </g>
</svg>