<?xml version="1.0" encoding="UTF-8"?>
<svg width="115px" height="64px" viewBox="0 0 115 64" version="1.1" xmlns="http://www.w3.org/2000/svg" xmlns:xlink="http://www.w3.org/1999/xlink">
    <!-- Generator: Sketch 50.2 (55047) - http://www.bohemiancoding.com/sketch -->
    <title>1 Fundamentals/Illustrations/Molecules/Table</title>
    <desc>Created with Sketch.</desc>
    <defs></defs>
    <g id="2.-Fundamentals" stroke="none" stroke-width="1" fill="none" fill-rule="evenodd">
        <g id="Illustrations" transform="translate(-110.000000, -1841.000000)">
            <g id="Molecules" transform="translate(100.000000, 1470.000000)">
                <g id="1-Fundamentals/Illustrations/Molecules/Table" transform="translate(10.000000, 371.000000)">
                    <g id="Fundamentals/Illustrations/Molecules/Table">
                        <path d="M6.12266942,25.3699468 L8.10102499,48.9567206 C8.12099213,49.1964183 8.2774642,49.4030795 8.50276003,49.4873141 C8.69609516,49.5597613 8.91278582,49.5314778 9.08104814,49.411833 C9.24931045,49.2921883 9.34717981,49.0968005 9.34223467,48.8903964 L8.59750886,25.0610656" id="Shape" fill="#85AECF" fill-rule="nonzero"></path>
                        <path d="M48.8183873,39.2146459 L50.7967429,62.7995247 C50.8167101,63.0392224 50.9731821,63.2458837 51.198478,63.3301182 C51.3927748,63.4029884 51.6106215,63.3740884 51.7791978,63.2530787 C51.9477742,63.1320691 52.0448414,62.9349135 52.0379526,62.7275156 L51.2932268,38.9038697" id="Shape" fill="#78A6CA" fill-rule="nonzero"></path>
                        <path d="M88.377919,16.6757941 L90.3562746,40.260673 C90.3762417,40.5003707 90.5327138,40.7070319 90.7580096,40.7912664 C90.9523064,40.8641366 91.1701531,40.8352367 91.3387294,40.714227 C91.5073058,40.5932173 91.604373,40.3960617 91.5974842,40.1886639 L90.8527584,16.359333" id="Shape" fill="#85AECF" fill-rule="nonzero"></path>
                        <polygon id="Shape" fill="#6499C4" fill-rule="nonzero" points="53.3056919 5.26045506 0.0890639005 27.8447863 0 28.8036444 50.2756243 43.0349187 99.6246051 16.4275522 99.713669 15.1598129"></polygon>
                        <polygon id="Shape" fill="#CDDCEA" fill-rule="nonzero" points="53.6145731 0 0.0890639005 27.8447863 50.2111951 41.4582982 99.713669 15.1598129"></polygon>
                        <polygon id="Shape" fill="#78A6CA" fill-rule="nonzero" opacity="0.4" points="9.21716621 47.956173 30.1130733 45.4358541 31.028347 45.3259455 31.9568855 46.8722464 8.59750886 49.3489808"></polygon>
                        <polygon id="Shape" fill="#78A6CA" fill-rule="nonzero" opacity="0.4" points="51.7935006 61.8444565 72.6894076 59.3241376 73.6046814 59.214229 74.5332199 60.7605299 51.1738433 63.2353694"></polygon>
                        <polygon id="Shape" fill="#78A6CA" fill-rule="nonzero" opacity="0.4" points="91.3606122 39.2923399 112.258414 36.773916 113.171793 36.6621124 114.100331 38.2103083 90.7409548 40.6851477"></polygon>
                    </g>
                </g>
            </g>
        </g>
    </g>
</svg>