<?xml version="1.0" encoding="UTF-8"?>
<svg width="288px" height="84px" viewBox="0 0 288 84" version="1.1" xmlns="http://www.w3.org/2000/svg" xmlns:xlink="http://www.w3.org/1999/xlink">
    <!-- Generator: Sketch 50.2 (55047) - http://www.bohemiancoding.com/sketch -->
    <title>1 Fundamentals/Illustrations/Templates/TransportScene</title>
    <desc>Created with Sketch.</desc>
    <defs></defs>
    <g id="2.-Fundamentals" stroke="none" stroke-width="1" fill="none" fill-rule="evenodd">
        <g id="Illustrations" transform="translate(-329.000000, -2933.000000)">
            <g id="Templates" transform="translate(100.000000, 2800.000000)">
                <g id="1-Fundamentals/Illustrations/Templates/TransportScene" transform="translate(229.000000, 133.000000)">
                    <g id="Fundamentals/Illustrations/Templates/TransportScene">
                        <ellipse id="Oval" fill="#DBDBDB" fill-rule="nonzero" cx="239.10438" cy="70.4726277" rx="48.135219" ry="7.40529197"></ellipse>
                        <path d="M0.428649635,78.2983577 L0,70.7600365 C10.6587591,70.1540146 19.6538321,69.4937956 27.5912409,68.9107664 C45.3990876,67.5968978 59.4656934,66.5720803 80.7930657,66.8709854 C101.814964,67.1649635 175.095985,63.7505474 179.765146,63.5452555 C194.572445,62.8883212 240.860036,62.344708 263.724635,65.8625912 L262.575,73.325365 C240.150547,69.8764599 194.647993,70.4364964 180.101825,71.0885036 C175.600182,71.2905109 102.082664,74.7213504 80.6846715,74.4208029 C59.6874088,74.1284672 45.7653285,75.1483577 28.1414234,76.4408759 C20.1760949,77.0255474 11.1498175,77.6824818 0.428649635,78.2983577 Z" id="Shape" fill="#DBDBDB" fill-rule="nonzero"></path>
                        <path d="M130.158394,27.0903285 L115.324818,27.0903285 C114.865857,27.0903285 114.493796,27.4623896 114.493796,27.9213504 C114.493796,28.3803111 114.865857,28.7523723 115.324818,28.7523723 L118.486314,28.7523723 C118.945275,28.7523723 119.317336,29.1244334 119.317336,29.5833942 C119.317336,30.0423549 118.945275,30.4144161 118.486314,30.4144161 L112.187956,30.4144161 C111.728995,30.4144161 111.356934,30.7864772 111.356934,31.245438 C111.356934,31.7043987 111.728995,32.0764599 112.187956,32.0764599 L136.494526,32.0764599 C136.791128,32.0788069 137.066452,31.9227402 137.216785,31.6670487 C137.367119,31.4113572 137.369623,31.0948865 137.223354,30.836848 C137.077086,30.5788095 136.804266,30.4184054 136.507664,30.4160584 L125.062226,30.4160584 C124.603266,30.4160584 124.231204,30.0439972 124.231204,29.5850365 C124.231204,29.1260758 124.603266,28.7540146 125.062226,28.7540146 L130.153467,28.7540146 C130.612428,28.7540146 130.984489,28.3819534 130.984489,27.9229927 C130.984489,27.464032 130.612428,27.0919708 130.153467,27.0919708 L130.158394,27.0903285 Z" id="Shape" fill="#FFFFFF" fill-rule="nonzero"></path>
                        <path d="M72.0262774,53.6452555 C72.0262774,53.6452555 74.7689781,28.9773723 78.8863139,32.2948905 C83.0036496,35.6124088 83.2631387,47.0759124 86.370438,49.7562044 C89.4777372,52.4364964 90.4089416,38.0611314 92.6622263,38.3222628 C94.9155109,38.5833942 98.4810219,53.6518248 98.4810219,53.6518248 L72.0262774,53.6452555 Z" id="Shape" fill="#DEDEDE" fill-rule="nonzero"></path>
                        <path d="M105.837044,32.8105839 L89.8620438,32.8105839 C89.4207703,32.8105839 89.0630474,33.1683068 89.0630474,33.6095803 C89.0630474,34.0508538 89.4207703,34.4085766 89.8620438,34.4085766 L94.6248175,34.4085766 C95.066091,34.4085766 95.4238139,34.7662995 95.4238139,35.207573 C95.4238139,35.6488465 95.066091,36.0065693 94.6248175,36.0065693 L77.9041971,36.0065693 C77.4629236,36.0065693 77.1052007,36.3642922 77.1052007,36.8055657 C77.1052007,37.2468392 77.4629236,37.604562 77.9041971,37.604562 L82.6669708,37.604562 C83.1082443,37.604562 83.4659672,37.9622849 83.4659672,38.4035584 C83.4659672,38.8448319 83.1082443,39.2025547 82.6669708,39.2025547 L76.6100365,39.2025547 C76.168763,39.2025547 75.8110401,39.5602776 75.8110401,40.0015511 C75.8110401,40.4428246 76.168763,40.8005474 76.6100365,40.8005474 L92.5850365,40.8005474 C93.011658,40.7845075 93.3501251,40.4356016 93.3532027,40.0086898 C93.3562804,39.5817779 93.0228787,39.2280284 92.5965328,39.2058394 L90.7653285,39.2058394 C90.324055,39.2058394 89.9663321,38.8481166 89.9663321,38.4068431 C89.9663321,37.9655696 90.324055,37.6078467 90.7653285,37.6078467 L104.544526,37.6078467 C104.971147,37.5918068 105.309614,37.2429008 105.312692,36.815989 C105.315769,36.3890772 104.982368,36.0353277 104.556022,36.0131387 L102.723175,36.0131387 C102.281902,36.0131387 101.924179,35.6554158 101.924179,35.2141423 C101.924179,34.7728688 102.281902,34.415146 102.723175,34.415146 L105.843613,34.415146 C106.284887,34.415146 106.642609,34.0574231 106.642609,33.6161496 C106.642609,33.1748761 106.284887,32.8171533 105.843613,32.8171533 L105.837044,32.8105839 Z" id="Shape" fill="#FFFFFF" fill-rule="nonzero"></path>
                        <path d="M26.6895985,51.529927 L25.884854,43.7928832 C25.7715328,42.7007299 25.2985401,42.4281022 24.8288321,42.0487226 C24.6005474,41.864781 24.3558394,41.6939781 24.1718978,41.5658759 C23.9239051,41.3655109 23.8434307,41.2374088 23.8089416,41.1224453 C22.9591358,41.342833 22.0813159,41.4358178 21.2041971,41.3983577 C21.1701624,41.5888414 21.0784339,41.7642723 20.9414234,41.9009124 C20.7771898,42.065146 20.5751825,42.2835766 20.3912409,42.510219 C20.010219,42.9782847 19.6029197,43.3412409 19.7162409,44.4333942 L20.5209854,52.170438 C20.5751825,52.6844891 20.7886861,53.2888686 21.4193431,53.3939781 C22.0220803,53.4941606 23.5937956,53.3364964 23.7613139,53.320073 L23.7465328,53.320073 L23.7760949,53.320073 L23.7613139,53.320073 C23.9255474,53.3036496 25.4989051,53.1344891 26.0605839,52.9111314 C26.6567518,52.679562 26.7421533,52.0439781 26.6895985,51.529927 Z" id="Shape" fill="#BF8B1E" fill-rule="nonzero"></path>
                        <path d="M20.7443431,40.2979927 L20.7443431,40.3718978 L20.7804745,40.725 L20.7804745,40.7874088 C20.8871368,40.8694759 21.0113758,40.9256927 21.1434307,40.9516423 C21.800365,40.930292 22.95,40.8629562 23.7711679,40.6445255 C23.8765758,40.593706 23.9744095,40.5284836 24.0618613,40.4507299 L24.0372263,40.2125912 L24.0109489,39.9613139 C23.9723047,39.9418466 23.9315168,39.9269646 23.8894161,39.9169708 C23.8894161,39.9169708 23.8368613,39.8923358 23.835219,39.8759124 L23.7563869,39.2764599 L23.7104015,38.9479927 C23.6939781,38.7936131 23.0354015,38.7344891 22.2322993,38.8182482 C21.4291971,38.9020073 20.8034672,39.0941606 20.8182482,39.2485401 L20.8970803,40.2076642 C20.843555,40.233119 20.7924353,40.2633511 20.7443431,40.2979927 Z" id="Shape" fill="#BF8B1E" fill-rule="nonzero"></path>
                        <path d="M27.5633212,55.1315693 L30.5819343,47.9562044 C31.0089416,46.9445255 30.7248175,46.4781022 30.4965328,45.919708 C30.3864964,45.6487226 30.2534672,45.3810219 30.1467153,45.1773723 C30.0251825,44.8817518 30.0153285,44.7306569 30.0416058,44.6140511 C29.1906815,44.3982515 28.3765129,44.057308 27.6257299,43.6023723 C27.50396,43.7529602 27.3388363,43.8624694 27.1527372,43.9160584 C26.9326642,43.9817518 26.6485401,44.080292 26.3775547,44.1854015 C25.8191606,44.4120438 25.2870438,44.535219 24.8600365,45.5468978 L21.8430657,52.7189781 C21.6427007,53.1952555 21.5392336,53.8275547 22.0417883,54.2233577 C22.5443431,54.6191606 23.9748175,55.2202555 24.1308394,55.2843066 L24.1177007,55.2843066 L24.1456204,55.2958029 L24.1308394,55.2958029 C24.285219,55.3614964 25.7436131,55.9691606 26.349635,56.0479927 C26.9819343,56.1235401 27.3629562,55.6078467 27.5633212,55.1315693 Z" id="Shape" fill="#BF8B1E" fill-rule="nonzero"></path>
                        <path d="M27.7554745,42.4248175 L27.7259124,42.4937956 L27.5879562,42.8222628 L27.5633212,42.8797445 C27.6186373,43.0014598 27.7012476,43.108797 27.8047445,43.1934307 C28.3959854,43.4939781 29.4257299,43.9817518 30.2518248,44.1788321 C30.3687686,44.1846204 30.4859492,44.1741183 30.6,44.1476277 L30.6936131,43.9259124 L30.7921533,43.6927007 C30.7675536,43.6571884 30.7388924,43.624669 30.7067518,43.5958029 C30.7067518,43.5958029 30.6722628,43.5481752 30.6788321,43.5333942 L30.8989051,42.970073 L31.0187956,42.6563869 C31.079562,42.5135036 30.5260949,42.1439781 29.7870438,41.835219 C29.0479927,41.5264599 28.4009124,41.3885036 28.340146,41.5330292 L27.9476277,42.4116788 C27.8833013,42.4097733 27.8189428,42.4141739 27.7554745,42.4248175 Z" id="Shape" fill="#BF8B1E" fill-rule="nonzero"></path>
                        <path d="M28.5388686,59.3211679 L29.900365,51.6613139 C30.0925182,50.5806569 29.7131387,50.1832117 29.3666058,49.6905109 C29.2023723,49.4507299 29.010219,49.2191606 28.8607664,49.0434307 C28.6784672,48.7822993 28.6341241,48.6361314 28.6341241,48.5178832 C27.756391,48.4953411 26.886871,48.3425801 26.0540146,48.0645985 C25.9688456,48.2382602 25.8324043,48.3815808 25.6631387,48.4751825 C25.4627737,48.5885036 25.2065693,48.7412409 24.965146,48.9087591 C24.4724453,49.2536496 23.9797445,49.490146 23.7859489,50.5708029 L22.4244526,58.2306569 C22.3341241,58.739781 22.3735401,59.380292 22.95,59.654562 C23.5018248,59.9173358 25.0554745,60.1998175 25.2213504,60.2293796 L25.2065693,60.2293796 L25.2361314,60.2293796 L25.2213504,60.2293796 C25.3855839,60.2589416 26.9425182,60.529927 27.5518248,60.4724453 C28.1906934,60.4182482 28.4485401,59.830292 28.5388686,59.3211679 Z" id="Shape" fill="#D49F21" fill-rule="nonzero"></path>
                        <path d="M25.9259124,46.8854015 L25.9127737,46.9593066 L25.850365,47.3091241 L25.8388686,47.3698905 C25.9198751,47.4765797 26.024413,47.5631326 26.1443431,47.6228102 C26.7864964,47.7870438 27.8983577,48.0350365 28.7490876,48.0514599 C28.8629485,48.0310854 28.9734708,47.9951656 29.0775547,47.944708 L29.1202555,47.7082117 L29.1645985,47.460219 C29.1326281,47.4310237 29.0973518,47.4056689 29.0594891,47.3846715 C29.0594891,47.3846715 29.015146,47.3452555 29.0184307,47.3304745 L29.1087591,46.7326642 L29.1563869,46.4041971 C29.1843066,46.2514599 28.5667883,46.0133212 27.7735401,45.8720803 C26.980292,45.7308394 26.3233577,45.7423358 26.295438,45.8967153 L26.1131387,46.8361314 C26.049264,46.8463694 25.9865526,46.8628724 25.9259124,46.8854015 Z" id="Shape" fill="#D49F21" fill-rule="nonzero"></path>
                        <path d="M23.5527372,55.8854015 L21.0629562,48.5145985 C20.7114964,47.4733577 20.1892336,47.3124088 19.6489051,47.0463504 C19.3861314,46.9166058 19.110219,46.8032847 18.895073,46.7178832 C18.6093066,46.5766423 18.5009124,46.4698905 18.4434307,46.3664234 C17.6631341,46.7690212 16.8273762,47.053511 15.9635036,47.2105839 C15.9721929,47.4040943 15.921164,47.5955959 15.8173358,47.7591241 C15.6958029,47.954562 15.544708,48.2124088 15.4149635,48.4735401 C15.1472628,49.0138686 14.830292,49.4589416 15.1817518,50.4985401 L17.6715328,57.8693431 C17.8357664,58.3620438 18.1790146,58.9007299 18.8211679,58.8645985 C19.4321168,58.8301095 20.929927,58.3308394 21.0892336,58.2766423 L21.0744526,58.2766423 L21.1023723,58.2667883 L21.0875912,58.2667883 C21.2518248,58.2125912 22.7414234,57.7018248 23.2472628,57.360219 C23.7531022,57.0186131 23.7186131,56.3748175 23.5527372,55.8854015 Z" id="Shape" fill="#FFC832" fill-rule="nonzero"></path>
                        <path d="M15.2737226,46.2383212 L15.2983577,46.3089416 L15.4116788,46.6374088 L15.4313869,46.6965328 C15.5537255,46.7507601 15.6869199,46.7760502 15.8206204,46.770438 C16.4627737,46.6062044 17.5565693,46.2875912 18.3104015,45.8934307 C18.4034263,45.8262315 18.4868584,45.7466672 18.5583942,45.6569343 L18.4812044,45.430292 L18.4007299,45.1921533 C18.3588137,45.1817132 18.315822,45.1762015 18.2726277,45.1757299 C18.2726277,45.1757299 18.215146,45.1625912 18.210219,45.1478102 L18.0016423,44.579562 L17.8833942,44.2642336 C17.8341241,44.1164234 17.1788321,44.2051095 16.415146,44.4629562 C15.6514599,44.7208029 15.0815693,45.0476277 15.1308394,45.1937956 L15.4198905,46.1118613 C15.3671416,46.1491229 15.3181835,46.1914799 15.2737226,46.2383212 Z" id="Shape" fill="#FFC832" fill-rule="nonzero"></path>
                        <path d="M53.6304745,57.1122263 C51.9076642,54.0968978 49.7529197,53.1279197 49.7529197,53.1279197 L49.7430657,52.9259124 L42.8304745,53.344708 L42.8304745,53.2987226 L35.569708,53.5582117 L36.5074818,44.9425182 C36.1790146,41.7120438 31.4458029,41.8220803 31.4458029,41.8220803 L31.6576642,47.9562044 C32.0124088,51.2934307 30.7297445,52.8979927 29.8133212,53.6041971 C29.8855839,55.1709854 29.949635,56.5948905 29.949635,56.7131387 C29.949635,56.9808394 29.709854,57.5228102 29.479927,57.6509124 C28.8656934,57.9941606 27.2677007,57.7855839 26.6649635,57.6509124 C26.2149635,57.5507299 26.1919708,55.6571168 26.3923358,54.2693431 L14.7481752,55.0658759 C14.9633212,56.25 15.1801095,64.2153285 15.1801095,64.2153285 L17.1180657,64.3237226 C17.775,60.4806569 20.3468978,59.9468978 21.5343066,60.0158759 C25.2394161,60.2326642 25.3116788,65.2927007 25.3116788,65.2927007 L27.5731752,65.2927007 C28.5421533,59.4771898 31.9894161,59.7990876 31.9894161,59.7990876 C35.7667883,60.1275547 35.7667883,64.8607664 35.7667883,64.8607664 L38.3518248,64.9691606 L55.584854,63.5698905 C55.6751825,60.0191606 53.6304745,57.1122263 53.6304745,57.1122263 Z" id="Shape" fill="#DBDBDB" fill-rule="nonzero"></path>
                        <ellipse id="Oval" fill="#BFBFBF" fill-rule="nonzero" cx="35.8521898" cy="71.1492701" rx="20.3616788" ry="1"></ellipse>
                        <ellipse id="Oval" fill="#999999" fill-rule="nonzero" cx="21.2370438" cy="67.0286496" rx="2.7459854" ry="4.02536496"></ellipse>
                        <ellipse id="Oval" fill="#999999" fill-rule="nonzero" cx="31.3702555" cy="67.3127737" rx="2.7459854" ry="4.02536496"></ellipse>
                        <ellipse id="Oval" fill="#999999" fill-rule="nonzero" cx="47.6589416" cy="66.839781" rx="2.7459854" ry="4.02536496"></ellipse>
                        <path d="M49.7529197,53.1262774 L49.3324818,44.2806569 C49.2715612,43.954901 49.1548859,43.6421001 48.9875912,43.3560219 C47.8839416,41.4804745 44.9162409,41.4804745 44.9162409,41.4804745 L45.1313869,45.7883212 L45.3465328,53.3282847" id="Shape" fill="#B3B3B3" fill-rule="nonzero"></path>
                        <path d="M31.4425182,41.8171533 L44.9096715,41.2784672 C44.9096715,41.2784672 48.9990876,41.5379562 49.3259124,44.0786496 L36.0985401,44.3430657 C36.0985401,44.3430657 36.3678832,42.4806569 31.4425182,41.8171533 Z" id="Shape" fill="#FFFFFF" fill-rule="nonzero"></path>
                        <path d="M35.5664234,53.5582117 L49.8859489,53.1279197 C49.8859489,53.1279197 55.5684307,56.494708 55.5684307,63.5748175 L39.4456204,64.8886861 C39.4456204,64.8886861 38.475,56.9709854 35.5664234,53.5582117 Z" id="Shape" fill="#FFFFFF" fill-rule="nonzero"></path>
                        <path d="M40.3718978,52.0620438 C39.9333942,52.0620438 39.5737226,51.9175182 39.3733577,51.6218978 C38.929927,50.9649635 39.4653285,49.8547445 40.5919708,49.0910584 C41.7186131,48.3273723 42.950365,48.2403285 43.3937956,48.8956204 C43.8372263,49.5525547 43.3018248,50.6627737 42.1751825,51.4264599 C41.6482738,51.808391 41.0218396,52.0291833 40.3718978,52.0620438 Z M42.3919708,48.8611314 C41.8243504,48.8942992 41.2784709,49.0910896 40.8202555,49.4277372 C39.8184307,50.1060219 39.4374088,50.9928832 39.7100365,51.3985401 C39.9826642,51.8041971 40.9467153,51.7729927 41.9468978,51.094708 C42.9470803,50.4164234 43.3297445,49.529562 43.0571168,49.1239051 C42.9437956,48.9580292 42.7007299,48.8644161 42.3919708,48.8644161 L42.3919708,48.8611314 Z" id="Shape" fill="#FFC832" fill-rule="nonzero"></path>
                        <rect id="Rectangle-path" fill="#FFC832" fill-rule="nonzero" transform="translate(42.144723, 52.015782) rotate(-27.380000) translate(-42.144723, -52.015782) " x="41.9410735" y="50.5228991" width="1" height="2.98576642"></rect>
                        <ellipse id="Oval" fill="#DBDBDB" fill-rule="nonzero" transform="translate(41.960340, 61.490786) rotate(-3.930000) translate(-41.960340, -61.490786) " cx="41.9603403" cy="61.4907859" rx="1.04288321" ry="1.80164234"></ellipse>
                        <ellipse id="Oval" fill="#DBDBDB" fill-rule="nonzero" transform="translate(52.661398, 60.737650) rotate(-4.004173) translate(-52.661398, -60.737650) " cx="52.6613978" cy="60.7376496" rx="1" ry="1.60354935"></ellipse>
                        <path d="M135.592883,56.6063869 C133.610584,57.2633212 132.382117,57.3618613 132.193248,56.4175182 C132.00438,55.4731752 134.155839,55.4436131 133.190146,51.9832117 C132.341058,48.9416058 134.97208,48.0136861 134.323358,47.0069343 C133.436496,45.6322993 130.729927,47.4175182 131.183212,45.1658759 C131.424635,43.9718978 132.930657,42.6875912 132.62354,41.8138686 C131.87135,39.6788321 130.040146,39.6509124 129.130292,39.8282847 C127.668613,40.1140511 124.860219,40.9779197 127.256387,45.7406934 L127.274453,45.7735401 L127.348358,45.914781 C127.65219,46.5125912 128.497993,48.4472628 126.234854,47.704927 C124.592518,47.1645985 124.592518,48.9793796 125.449818,49.5459854 C126.307117,50.1125912 128.37646,50.3014599 128.471715,53.4645985 C128.471715,53.4645985 128.460219,54.3613139 127.450182,54.220073 C126.440146,54.0788321 125.830839,55.2580292 126.678285,55.6357664 C127.52573,56.0135036 128.294343,55.9740876 127.663686,56.6211679 C126.430292,57.7708029 124.832299,59.6085766 126.537044,60.9421533 C128.708212,62.6419708 128.282847,61.7912409 129.439051,63.5863139 C130.595255,65.3813869 130.974635,66.4193431 132.483942,63.5863139 C133.993248,60.7532847 135.883577,61.9817518 137.110401,60.0930657 C138.337226,58.2043796 137.575182,55.9461679 135.592883,56.6063869 Z" id="Shape" fill="#DBDBDB" fill-rule="nonzero"></path>
                        <path d="M130.278285,61.4562044 L130.137044,61.209854 C132.027372,60.1177007 131.511679,58.9762774 130.793978,57.394708 C130.255292,56.2007299 129.644343,54.8474453 129.958029,53.2100365 C130.810401,48.7757299 129.102372,43.3297445 129.085949,43.2755474 L129.355292,43.1885036 C129.373358,43.2443431 131.102737,48.7510949 130.235584,53.2625912 C129.938321,54.8129562 130.529562,56.1218978 131.056752,57.2781022 C131.77281,58.8662409 132.391971,60.2359489 130.278285,61.4562044 Z" id="Shape" fill="#B0B0B0" fill-rule="nonzero" opacity="0.38"></path>
                        <path d="M103.033577,66.6919708 C103.033577,66.6919708 103.542701,58.0237226 108.914781,60.5381387 C108.914781,60.5381387 109.243248,54.1051095 113.968248,54.6257299 C113.968248,54.6257299 118.790146,54.8343066 118.594708,61.3297445 C118.594708,61.3297445 120.920255,57.5523723 124.014416,60.8912409 C125.219251,62.4726328 125.953062,64.3620954 126.131387,66.3421533 C126.131387,66.3421533 108.427007,66.5507299 102.913686,66.590146" id="Shape" fill="#DEDEDE" fill-rule="nonzero"></path>
                        <path d="M126.055839,65.7854015 C126.055839,65.7854015 133.006204,70.1063869 125.354562,68.6118613 C125.354562,68.6118613 130.17646,73.0461679 124.812591,73.0461679 C123.275365,73.0461679 118.210401,72.6388686 115.503832,69.5085766 C115.503832,69.5085766 116.141058,72.3711679 110.204015,70.1441606 C110.204015,70.1441606 106.098175,68.9370438 103.053285,66.5408759 L114.95365,66.1959854" id="Shape" fill="#0F69AF" fill-rule="nonzero" opacity="0.0268908514"></path>
                        <path d="M151.273905,82.0839416 C150.781204,81.4582117 148.550912,80.5368613 147.368431,79.6812044 C145.136496,78.0667883 148.700365,79.3527372 148.227372,78.3673358 C147.880839,77.6463504 145.092153,76.979562 143.196898,74.8001825 C141.042153,72.3218978 139.37354,72.3005474 138.728102,71.6239051 C138.082664,70.9472628 139.09927,71.0145985 141.168613,71.4892336 C143.237956,71.9638686 141.919161,70.3395985 139.399818,68.9846715 C136.880474,67.6297445 136.464964,68.5116788 132.938869,66.4801095 L132.429745,66.1861314 C132.715511,66.2173358 131.347445,65.5718978 130.687226,65.6934307 C130.027007,65.8149635 130.770985,67.519708 130.603467,68.3687956 C130.416241,69.324635 133.168796,70.6368613 135.080474,71.4662409 C136.10365,71.9244526 135.484489,71.8965328 135.151095,72.1675182 C134.817701,72.4385036 136.27281,73.2843066 136.92646,73.1824818 C137.580109,73.0806569 138.338869,73.7244526 138.338869,73.7244526 C140.914051,75.9908759 139.488504,76.1271898 139.307847,76.5328467 C139.12719,76.9385036 140.643066,78.2392336 141.442883,77.8467153 C142.55146,77.3145985 143.525365,78.7007299 143.793066,79.1310219 L143.855474,79.2328467 L143.868613,79.2574818 C146.028285,82.6751825 148.897445,83.2959854 150.254015,83.499635 C151.109672,83.6343066 152.490876,83.6178832 151.273905,82.0839416 Z" id="Shape" fill="#0F69AF" fill-rule="nonzero" opacity="0.0268908514"></path>
                        <path d="M162.638869,41.0928832 L156.043248,35.1722628 C155.112044,34.3363139 154.50438,34.4677007 153.817883,34.5071168 C153.489416,34.5251825 153.14781,34.5678832 152.888321,34.6072993 C152.525365,34.6270073 152.357847,34.5826642 152.242883,34.5104015 C151.693748,35.3465575 151.023481,36.0965264 150.254015,36.7357664 C150.336131,36.8425182 150.396898,37.0051095 150.418248,37.3614964 C150.406752,37.6242701 150.401825,37.9642336 150.418248,38.2959854 C150.45438,38.9824818 150.388686,39.6 151.319891,40.4310219 L157.915511,46.3516423 C158.354015,46.7458029 158.996168,47.0923358 159.610401,46.6981752 C160.196715,46.3220803 161.403832,44.9885036 161.531934,44.8439781 L161.520438,44.8571168 L161.543431,44.8308394 L161.531934,44.8439781 C161.660036,44.7010949 162.857299,43.3658759 163.17427,42.735219 C163.491241,42.0881387 163.083942,41.4854015 162.638869,41.0928832 Z" id="Shape" fill="#FFC832" fill-rule="nonzero"></path>
                        <path d="M149.028832,36.1494526 L149.091241,36.2069343 L149.391788,36.4779197 L149.444343,36.5255474 C149.595799,36.511514 149.74195,36.4626096 149.87135,36.3826642 C150.414964,35.8587591 151.324818,34.9308394 151.852007,34.1178832 C151.902028,33.9943431 151.934639,33.8644513 151.948905,33.7319343 L151.751825,33.549635 L151.538321,33.3574818 C151.490863,33.3707204 151.445114,33.3894607 151.402007,33.4133212 C151.402007,33.4133212 151.337956,33.4330292 151.324818,33.4133212 L150.800912,32.9666058 L150.506934,32.7202555 C150.375547,32.6020073 149.774453,33.0487226 149.160219,33.7385036 C148.545985,34.4282847 148.163321,35.0638686 148.29635,35.1837591 L149.09781,35.9326642 C149.067477,36.0023825 149.044363,36.0750243 149.028832,36.1494526 Z" id="Shape" fill="#FFC832" fill-rule="nonzero"></path>
                        <path d="M154.215328,42.0963504 C153.267701,44.6239051 151.139234,45.8523723 150.738504,47.5160584 C150.643248,47.9118613 150.817336,48.9383212 151.843796,48.8989051" id="Shape" fill="#646B49" fill-rule="nonzero"></path>
                        <path d="M151.781387,49.485219 C151.29702,49.501441 150.83267,49.2914211 150.525,48.9169708 C150.182958,48.480091 150.049147,47.9154465 150.158759,47.3715328 C150.382117,46.4419708 151.034124,45.6717153 151.723905,44.8554745 C152.413686,44.0392336 153.202007,43.1129562 153.655292,41.8910584 L154.765511,42.3065693 C154.235036,43.7206204 153.382664,44.7306569 152.630474,45.6208029 C152.008029,46.3565693 151.469343,46.9937956 151.316606,47.6490876 C151.294905,47.8318479 151.341716,48.0161653 151.447993,48.1664234 C151.541411,48.2736577 151.683834,48.3246563 151.824088,48.3010949 L151.870073,49.485219 L151.781387,49.485219 Z" id="Shape" fill="#BFBFBF" fill-rule="nonzero"></path>
                        <path d="M150.536496,51.9717153 C150.536496,51.9717153 149.35073,53.3939781 150.437956,59.6906934 C150.437956,59.6906934 149.739964,62.3184307 150.493796,64.374635 L151.365876,64.4912409 L151.72062,56.235219 C151.72062,56.235219 153.381022,59.5051095 153.404015,60.1127737 C153.463139,61.6532847 153.60438,62.339781 154.210401,64.4124088 L155.195803,64.4124088 C155.195803,64.4124088 154.648905,59.6660584 154.530657,58.1715328 C154.412409,56.6770073 154.60292,52.6910584 154.129927,52.2591241 C153.656934,51.8271898 150.536496,51.9717153 150.536496,51.9717153 Z" id="Shape" fill="#C7C7C7" fill-rule="nonzero"></path>
                        <path d="M150.191606,63.0476277 C150.191606,63.0476277 150.437956,65.4093066 150.551277,65.675365 C150.551277,65.675365 152.602555,65.7213504 152.614051,65.675365 C152.625547,65.6293796 152.835766,65.2237226 152.418613,65.2713504 C152.418613,65.2713504 151.316606,65.2105839 151.364234,64.4879562 C151.425,63.5698905 151.425,63.254562 151.425,62.8554745 L150.191606,63.0476277 Z" id="Shape" fill="#172B4D" fill-rule="nonzero"></path>
                        <path d="M161.288869,45.3432482 C161.641516,45.0812214 161.976716,44.7964941 162.292336,44.4908759 C162.402372,44.3627737 162.331752,44.1771898 162.270985,44.0244526 C162.210219,43.8717153 161.770073,43.4857664 161.752007,43.6631387 C161.727419,43.9342261 161.583593,44.1803542 161.359489,44.334854 C161.359489,44.334854 161.211679,43.6779197 161.091788,44.2346715 C161.00146,44.6534672 160.927555,44.975365 160.927555,44.975365 C160.927555,44.975365 160.983394,45.5682482 161.288869,45.3432482 Z" id="Shape" fill="#FFFFFF" fill-rule="nonzero"></path>
                        <path d="M153.750547,62.745438 C153.750547,62.745438 154.294161,65.4076642 154.407482,65.680292 C154.407482,65.680292 156.458759,65.7262774 156.470255,65.680292 C156.481752,65.6343066 156.691971,65.2286496 156.274818,65.2762774 C156.274818,65.2762774 155.258212,65.2171533 155.220438,64.4928832 C155.174453,63.6125912 155.006934,63.1445255 155.006934,62.7437956 L153.750547,62.745438 Z" id="Shape" fill="#172B4D" fill-rule="nonzero"></path>
                        <path d="M161.581204,45.4779197 L160.743613,44.6403285 C158.874635,46.5093066 155.790328,46.8936131 154.292518,46.5635036 C154.100365,46.5208029 153.964051,46.5093066 153.766971,46.4731752 L153.689781,46.4600365 C153.087044,46.354927 152.288869,45.4959854 152.288869,45.4959854 L151.856934,46.364781 C151.590876,46.4107664 150.367336,47.0906934 150.258942,47.7476277 C150.258942,47.7476277 150.733577,51.6974453 150.534854,51.975 C150.336131,52.2525547 152.505657,52.7255474 154.129927,52.2509124 C153.973905,52.1178832 153.835949,50.7136861 154.397628,50.1158759 C154.397628,50.1158759 155.532482,49.700365 154.579927,48.6082117 C154.579927,48.6082117 154.560219,48.4998175 154.527372,48.3355839 C154.604562,48.1056569 154.724453,47.895438 154.959307,47.8625912 C155.021715,47.8543796 155.034854,47.8363139 155.036496,47.8149635 C155.159672,47.8248175 155.263139,47.8494526 155.401095,47.8494526 C157.289781,47.8510949 159.845255,47.2138686 161.581204,45.4779197 Z" id="Shape" fill="#BFBFBF" fill-rule="nonzero"></path>
                        <path d="M152.385766,44.8653285 C152.989704,45.5597854 154.030379,45.662881 154.758835,45.1004191 C155.487291,44.5379571 155.650828,43.505054 155.131752,42.745073 C154.856703,42.2483707 154.436757,41.8473304 153.92792,41.595438 C153.183942,41.2489051 152.111496,41.7465328 151.925912,41.874635 C151.627007,42.079927 151.564599,42.7319343 151.433212,42.960219 C151.301825,43.1885036 151.104745,43.4529197 151.268978,44.1689781 C151.378467,44.6441606 151.535584,44.8850365 151.740328,44.8916058 L152.385766,44.8653285 Z" id="Shape" fill="#535353"></path>
                        <path d="M154.921533,44.1525547 C154.772658,44.2499481 154.604661,44.3143469 154.428832,44.3414234 C154.302372,44.349635 153.742336,44.1656934 153.325182,44.0425182 C153.144526,44.2757299 152.986861,44.5089416 152.986861,44.5089416 C152.839051,44.5089416 152.766788,44.4908759 152.783212,44.4071168 L153.019708,43.9341241 L152.931022,43.879927 L152.789781,43.7567518 C152.535219,43.5925182 152.343066,43.7222628 152.208394,43.9374088 C152.073723,44.1525547 152.101642,44.325 152.221533,44.4071168 L151.965328,45.2989051 C151.885401,45.6525547 152.060036,45.9377737 152.489234,46.154562 C153.131387,46.4830292 153.560036,46.2301095 153.770255,46.0116788 C153.909307,45.8660584 154.293066,45.2463504 154.921533,44.1525547 Z" id="Shape" fill="#FFFFFF"></path>
                        <path d="M151.310036,44.3233577 C151.310036,44.3233577 151.608942,45.0952555 151.310036,45.6224453 C151.310036,45.6224453 152.512226,45.425365 152.221533,44.4071168" id="Shape" fill="#535353" fill-rule="nonzero"></path>
                        <path d="M154.834489,44.0047445 C154.834489,44.0047445 153.993613,44.9310219 153.348175,44.8489051 C152.840693,44.784854 152.691241,44.2560219 152.691241,44.2560219 C152.758577,43.9275547 153.256204,43.4644161 153.256204,43.4644161" id="Shape" fill="#535353" fill-rule="nonzero"></path>
                        <path d="M215.513869,68.7366788 C215.513869,68.7366788 221.482117,65.1892336 221.482117,65.0085766 C221.482117,64.8279197 221.618431,57.9087591 221.618431,57.9087591 L213.615328,58.1797445 L214.700912,68.4 L215.513869,68.7366788 Z" id="Shape" fill="#A6A5A5" fill-rule="nonzero"></path>
                        <polyline id="Shape" fill="#A6A5A5" fill-rule="nonzero" points="224.494161 8.47116788 224.042518 16.7189781 255.790511 16.8306569 258.388686 21.5770073 214.438139 23.4968978 215.681387 6.6629562 224.380839 6.32463504"></polyline>
                        <polyline id="Shape" fill="#A6A5A5" fill-rule="nonzero" points="223.025912 24.1751825 222.120985 35.8127737 259.293613 35.6994526 259.405292 39.6541971 214.438139 39.9925182 215.681387 23.1585766 224.380839 22.8202555"></polyline>
                        <polyline id="Shape" fill="#A6A5A5" fill-rule="nonzero" points="222.009307 39.6541971 221.10438 51.2917883 260.535219 51.4051095 261.440146 56.939781 214.32646 56.4881387 214.664781 38.6375912 223.364234 38.2976277"></polyline>
                        <path d="M214.093248,5.65620438 C214.093248,5.65620438 219.764234,1.17919708 224.735584,0.500912409 C224.735584,0.500912409 257.370438,-0.471350365 261.888504,0.883576642 L270.697993,63.699635 L264.841423,68.7366788 L256.465511,6.32791971 L214.093248,5.65620438 Z" id="Shape" fill="#FFFFFF" fill-rule="nonzero"></path>
                        <path d="M257.92062,5.65620438 C245.110401,3.09251825 214.093248,5.65620438 214.093248,5.65620438 L212.299818,68.7366788 L215.513869,68.7366788 L215.62719,58.7036496 L259.960401,58.959854 L261.788321,68.7366788 L264.836496,68.7366788 L257.92062,5.65620438 Z M218.011861,8.98850365 C234.159307,6.68923358 255.094161,8.98850365 255.094161,8.98850365 L256.118978,21.5474453 L217.169343,21.5474453 L218.011861,8.98850365 Z M217.156204,25.0489051 L256.368613,24.5364964 L258.290146,38.4963504 L216.64708,38.240146 L217.156204,25.0489051 Z M215.74708,55.8854015 L216.387591,41.4065693 L258.158759,41.9189781 L260.080292,56.0135036 L215.74708,55.8854015 Z" id="Shape" fill="#CACACA" fill-rule="nonzero"></path>
                        <path d="M225.091971,19.589781 L225.182299,14.0058394 C225.195438,13.2175182 224.881752,12.9843066 224.579562,12.6739051 C224.433394,12.5228102 224.274088,12.379927 224.147628,12.2731752 C224.039653,12.1836817 223.962645,12.0624223 223.927555,11.9266423 C223.303429,12.0109207 222.670248,12.002065 222.048723,11.900365 C222.007024,12.0305684 221.926862,12.1450861 221.818796,12.2288321 C221.689051,12.3322993 221.524818,12.4702555 221.373723,12.614781 C221.061679,12.9153285 220.741423,13.1386861 220.728285,13.9286496 L220.637956,19.5125912 C220.637956,19.8837591 220.733212,20.3337591 221.173358,20.4618613 C221.613504,20.5899635 222.727007,20.6080292 222.84854,20.6096715 C222.970073,20.6096715 224.101642,20.6260949 224.527007,20.5160584 C224.952372,20.4060219 225.085401,19.9609489 225.091971,19.589781 Z" id="Shape" fill="#FFC832" fill-rule="nonzero"></path>
                        <path d="M221.820438,11.0791971 L221.820438,11.1333942 L221.820438,11.3879562 L221.820438,11.4322993 C221.889807,11.4986532 221.973547,11.5481107 222.065146,11.5768248 C222.694734,11.6407165 223.329172,11.6407165 223.958759,11.5768248 C224.038096,11.5495672 224.113266,11.5114296 224.182117,11.4635036 L224.182117,11.2992701 L224.182117,11.1186131 C224.155985,11.1011159 224.127868,11.086782 224.098358,11.0759124 C224.098358,11.0759124 224.062226,11.0529197 224.062226,11.0430657 L224.062226,10.6094891 L224.062226,10.3680657 C224.062226,10.2563869 223.599088,10.1578467 223.020985,10.1479927 C222.442883,10.1381387 221.979745,10.2218978 221.97646,10.3335766 L221.950182,11.0233577 C221.905165,11.0375568 221.861697,11.0562648 221.820438,11.0791971 Z" id="Shape" fill="#FFC832" fill-rule="nonzero"></path>
                        <path d="M231.794343,19.6226277 L231.794343,14.0386861 C231.794343,13.250365 231.477372,13.020438 231.171898,12.7149635 C231.024088,12.5671533 230.861496,12.4259124 230.733394,12.3208029 C230.624171,12.2328885 230.545441,12.1127811 230.508394,11.9775547 C229.885568,12.0705348 229.252388,12.0705348 228.629562,11.9775547 C228.590991,12.1107152 228.51245,12.2288147 228.404562,12.3158759 C228.27646,12.4209854 228.115511,12.5605839 227.966058,12.7100365 C227.658942,13.0155109 227.341971,13.2437956 227.341971,14.0321168 L227.341971,19.6160584 C227.341971,19.9872263 227.448723,20.4372263 227.892153,20.5571168 C228.335584,20.6770073 229.447445,20.6786496 229.568978,20.6786496 C229.690511,20.6786496 230.823723,20.6786496 231.245803,20.5587591 C231.667883,20.4388686 231.794343,19.9937956 231.794343,19.6226277 Z" id="Shape" fill="#FFC832" fill-rule="nonzero"></path>
                        <path d="M228.391423,11.1678832 L228.391423,11.5209854 C228.46176,11.5857783 228.546046,11.6335403 228.637774,11.6605839 C229.268137,11.7168357 229.902575,11.7091322 230.531387,11.6375912 C230.610332,11.6091701 230.684949,11.5699269 230.753102,11.5209854 L230.753102,11.1678832 C230.726891,11.1509568 230.698778,11.1371757 230.669343,11.1268248 C230.669343,11.1268248 230.633212,11.1054745 230.633212,11.0939781 L230.621715,10.6604015 L230.621715,10.4189781 C230.621715,10.3072993 230.156934,10.2169708 229.57719,10.2153285 C228.997445,10.2136861 228.535949,10.3056569 228.535949,10.4173358 L228.521168,11.1087591 C228.476023,11.124008 228.432551,11.1438184 228.391423,11.1678832 Z" id="Shape" fill="#FFC832" fill-rule="nonzero"></path>
                        <path d="M238.890876,19.6817518 L238.87938,14.0978102 C238.87938,13.3094891 238.559124,13.0812044 238.252007,12.7839416 C238.102555,12.6361314 237.939964,12.4965328 237.813504,12.3914234 C237.703672,12.3037499 237.624349,12.1836161 237.586861,12.0481752 C236.964441,12.1438783 236.331262,12.1466457 235.708029,12.0563869 C235.669762,12.1901443 235.591195,12.3088549 235.483029,12.3963504 C235.356569,12.5014599 235.193978,12.6427007 235.046168,12.7905109 C234.740693,13.0959854 234.423723,13.3259124 234.425365,14.1142336 L234.436861,19.6981752 C234.436861,20.0693431 234.546898,20.5193431 234.988686,20.6375912 C235.430474,20.7558394 236.54562,20.7558394 236.665511,20.7541971 C236.787044,20.7541971 237.920255,20.7541971 238.342336,20.6293796 C238.764416,20.504562 238.892518,20.0529197 238.890876,19.6817518 Z" id="Shape" fill="#FFC832" fill-rule="nonzero"></path>
                        <path d="M235.464964,11.2319343 L235.464964,11.5850365 C235.535773,11.6500473 235.620644,11.6978222 235.712956,11.724635 C236.343486,11.779251 236.977924,11.7698967 237.606569,11.6967153 C237.685605,11.6677823 237.760227,11.6279841 237.828285,11.5784672 L237.828285,11.2270073 C237.802073,11.2100808 237.77396,11.1962998 237.744526,11.1859489 C237.744526,11.1859489 237.708394,11.1645985 237.708394,11.1531022 L237.696898,10.7195255 L237.688686,10.4781022 C237.688686,10.3664234 237.222263,10.2760949 236.644161,10.2777372 C236.066058,10.2793796 235.60292,10.3713504 235.604562,10.4830292 L235.591423,11.1744526 C235.547472,11.1893807 235.505111,11.2086357 235.464964,11.2319343 Z" id="Shape" fill="#FFC832" fill-rule="nonzero"></path>
                        <path d="M245.915146,19.6177007 L245.900365,14.0337591 C245.900365,13.245438 245.571898,13.0171533 245.272993,12.7198905 C245.12354,12.5720803 244.960949,12.4324818 244.834489,12.3273723 C244.724658,12.2396988 244.645335,12.119565 244.607847,11.9841241 C243.985508,12.080372 243.352328,12.0836929 242.729015,11.9939781 C242.690748,12.1277355 242.612181,12.2464462 242.504015,12.3339416 C242.377555,12.4390511 242.214964,12.580292 242.067153,12.7281022 C241.761679,13.0335766 241.444708,13.265146 241.44635,14.0518248 L241.461131,19.6357664 C241.461131,20.0069343 241.571168,20.4569343 242.014599,20.5735401 C242.458029,20.690146 243.571533,20.690146 243.691423,20.690146 C243.812956,20.690146 244.946168,20.690146 245.368248,20.5653285 C245.790328,20.4405109 245.916788,19.9872263 245.915146,19.6177007 Z" id="Shape" fill="#FFC832" fill-rule="nonzero"></path>
                        <path d="M242.485949,11.1678832 L242.485949,11.5209854 C242.557705,11.5864366 242.643746,11.6342373 242.737226,11.6605839 C243.367811,11.7146547 244.00225,11.7047502 244.630839,11.6310219 C244.709875,11.6020889 244.784497,11.5622906 244.852555,11.5127737 L244.852555,11.1678832 C244.826343,11.1509568 244.79823,11.1371757 244.768796,11.1268248 C244.768796,11.1268248 244.732664,11.1054745 244.732664,11.0939781 L244.719526,10.6604015 L244.711314,10.4189781 C244.711314,10.3072993 244.244891,10.2169708 243.666788,10.2186131 C243.088686,10.2202555 242.62719,10.3122263 242.62719,10.4239051 L242.614051,11.1153285 C242.569721,11.128578 242.526811,11.146182 242.485949,11.1678832 Z" id="Shape" fill="#FFC832" fill-rule="nonzero"></path>
                        <path d="M225.091971,36.0607664 L225.182299,30.4768248 C225.195438,29.6885036 224.881752,29.455292 224.579562,29.1448905 C224.433394,28.9937956 224.274088,28.8509124 224.147628,28.7441606 C224.039653,28.6546671 223.962645,28.5334077 223.927555,28.3976277 C223.303429,28.4819061 222.670248,28.4730504 222.048723,28.3713504 C222.007024,28.5015538 221.926862,28.6160715 221.818796,28.6998175 C221.689051,28.8032847 221.524818,28.9412409 221.373723,29.0857664 C221.061679,29.3863139 220.741423,29.6096715 220.728285,30.399635 L220.637956,35.9835766 C220.637956,36.3547445 220.733212,36.8047445 221.173358,36.9328467 C221.613504,37.0609489 222.727007,37.0790146 222.84854,37.0806569 C222.970073,37.0806569 224.101642,37.0970803 224.527007,36.9870438 C224.952372,36.8770073 225.085401,36.4319343 225.091971,36.0607664 Z" id="Shape" fill="#FFC832" fill-rule="nonzero"></path>
                        <path d="M221.820438,27.5501825 L221.820438,27.6043796 L221.820438,27.8589416 L221.820438,27.9032847 C221.889807,27.9696386 221.973547,28.0190961 222.065146,28.0478102 C222.694734,28.1117019 223.329172,28.1117019 223.958759,28.0478102 C224.038096,28.0205526 224.113266,27.982415 224.182117,27.9344891 L224.182117,27.7702555 L224.182117,27.5895985 C224.155985,27.5721013 224.127868,27.5577674 224.098358,27.5468978 C224.098358,27.5468978 224.062226,27.5239051 224.062226,27.5140511 L224.062226,27.0804745 L224.062226,26.8390511 C224.062226,26.7273723 223.599088,26.6288321 223.020985,26.6189781 C222.442883,26.6091241 221.979745,26.6928832 221.97646,26.804562 L221.950182,27.4943431 C221.905165,27.5085422 221.861697,27.5272502 221.820438,27.5501825 Z" id="Shape" fill="#FFC832" fill-rule="nonzero"></path>
                        <path d="M238.890876,36.1527372 L238.87938,30.5687956 C238.87938,29.7804745 238.559124,29.5521898 238.252007,29.254927 C238.102555,29.1071168 237.939964,28.9675182 237.813504,28.8624088 C237.703672,28.7747353 237.624349,28.6546015 237.586861,28.5191606 C236.964441,28.6148637 236.331262,28.6176311 235.708029,28.5273723 C235.669762,28.6611297 235.591195,28.7798403 235.483029,28.8673358 C235.356569,28.9724453 235.193978,29.1136861 235.046168,29.2614964 C234.740693,29.5669708 234.423723,29.7968978 234.425365,30.585219 L234.436861,36.1691606 C234.436861,36.5403285 234.546898,36.9903285 234.988686,37.1085766 C235.430474,37.2268248 236.54562,37.2268248 236.665511,37.2251825 C236.787044,37.2251825 237.920255,37.2251825 238.342336,37.100365 C238.764416,36.9755474 238.892518,36.5239051 238.890876,36.1527372 Z" id="Shape" fill="#FFC832" fill-rule="nonzero"></path>
                        <path d="M235.464964,27.7029197 L235.464964,28.0560219 C235.535773,28.1210327 235.620644,28.1688076 235.712956,28.1956204 C236.343486,28.2502364 236.977924,28.2408821 237.606569,28.1677007 C237.685605,28.1387677 237.760227,28.0989695 237.828285,28.0494526 L237.828285,27.6963504 C237.802073,27.6794239 237.77396,27.6656429 237.744526,27.655292 C237.744526,27.655292 237.708394,27.6339416 237.708394,27.6224453 L237.696898,27.1888686 L237.688686,26.9474453 C237.688686,26.8357664 237.222263,26.745438 236.644161,26.7470803 C236.066058,26.7487226 235.60292,26.8406934 235.604562,26.9523723 L235.591423,27.6437956 C235.547409,27.6592486 235.505045,27.6790547 235.464964,27.7029197 Z" id="Shape" fill="#FFC832" fill-rule="nonzero"></path>
                        <path d="M253.193978,35.8308394 L253.001825,30.2468978 C252.975547,29.460219 252.648723,29.2417883 252.333394,28.9461679 C252.179015,28.8032847 252.004927,28.6686131 251.881752,28.5684307 C251.770181,28.4863352 251.686948,28.3715303 251.643613,28.2399635 C251.024743,28.3557095 250.39212,28.3789555 249.766423,28.3089416 C249.732508,28.4436272 249.657966,28.5646134 249.55292,28.6554745 C249.429745,28.7655109 249.27208,28.9100365 249.129197,29.0644161 C248.833577,29.3797445 248.523175,29.6195255 248.551095,30.4078467 L248.743248,35.9917883 C248.756387,36.3629562 248.879562,36.8129562 249.324635,36.9114964 C249.769708,37.0100365 250.883212,36.9788321 251.004745,36.9739051 C251.126277,36.9739051 252.257847,36.9262774 252.676642,36.7965328 C253.095438,36.6667883 253.205474,36.2020073 253.193978,35.8308394 Z" id="Shape" fill="#FFC832" fill-rule="nonzero"></path>
                        <path d="M249.49708,27.4976277 L249.49708,27.5518248 L249.505292,27.8063869 L249.505292,27.8507299 C249.577861,27.9132254 249.663839,27.9581813 249.756569,27.9821168 C250.388659,28.0159381 251.022548,27.9856743 251.64854,27.8917883 C251.726224,27.8604002 251.799181,27.8183945 251.865328,27.7669708 L251.865328,27.6027372 L251.865328,27.4220803 C251.838445,27.4061769 251.80978,27.3934982 251.779927,27.3843066 C251.779927,27.3843066 251.743796,27.3645985 251.742153,27.3531022 L251.715876,26.9195255 L251.699453,26.6781022 C251.699453,26.5664234 251.22646,26.4925182 250.65,26.5138686 C250.07354,26.535219 249.613686,26.6403285 249.616971,26.7520073 L249.626825,27.4434307 C249.58187,27.4571041 249.538404,27.475261 249.49708,27.4976277 Z" id="Shape" fill="#FFC832" fill-rule="nonzero"></path>
                        <path d="M225.857299,53.2970803 L225.947628,47.7131387 C225.960766,46.9248175 225.64708,46.6916058 225.344891,46.3812044 C225.198723,46.2301095 225.039416,46.0872263 224.912956,45.9804745 C224.804982,45.8909809 224.727974,45.7697216 224.692883,45.6339416 C224.068757,45.71822 223.435576,45.7093643 222.814051,45.6076642 C222.772353,45.7378677 222.69219,45.8523854 222.584124,45.9361314 C222.45438,46.0395985 222.290146,46.1775547 222.139051,46.3220803 C221.827007,46.6226277 221.506752,46.8459854 221.493613,47.6359489 L221.403285,53.2198905 C221.403285,53.5910584 221.49854,54.0410584 221.938686,54.1691606 C222.378832,54.2972628 223.492336,54.3153285 223.613869,54.3169708 C223.735401,54.3169708 224.866971,54.3333942 225.292336,54.2233577 C225.717701,54.1133212 225.85073,53.6682482 225.857299,53.2970803 Z" id="Shape" fill="#FFC832" fill-rule="nonzero"></path>
                        <path d="M222.585766,44.7864964 L222.585766,44.8357664 L222.585766,45.0903285 L222.585766,45.1346715 C222.655135,45.2010255 222.738876,45.2504829 222.830474,45.2791971 C223.460062,45.3430887 224.0945,45.3430887 224.724088,45.2791971 C224.803425,45.2519394 224.878594,45.2138018 224.947445,45.1658759 L224.947445,45.0016423 L224.947445,44.8209854 C224.921313,44.8034881 224.893197,44.7891543 224.863686,44.7782847 C224.863686,44.7782847 224.827555,44.755292 224.827555,44.745438 L224.827555,44.3118613 L224.827555,44.070438 C224.827555,43.9587591 224.364416,43.860219 223.786314,43.850365 C223.208212,43.8405109 222.745073,43.9242701 222.741788,44.0359489 L222.715511,44.7257299 C222.670302,44.7415029 222.626827,44.7618646 222.585766,44.7864964 Z" id="Shape" fill="#FFC832" fill-rule="nonzero"></path>
                        <path d="M239.657847,53.3890511 L239.64635,47.8051095 C239.64635,47.0167883 239.326095,46.7885036 239.018978,46.4912409 C238.869526,46.3434307 238.706934,46.2038321 238.580474,46.0987226 C238.470643,46.0110492 238.39132,45.8909154 238.353832,45.7554745 C237.731412,45.8511775 237.098233,45.8539449 236.475,45.7636861 C236.436733,45.8974436 236.358166,46.0161542 236.25,46.1036496 C236.12354,46.2087591 235.960949,46.35 235.813139,46.4978102 C235.507664,46.8032847 235.190693,47.0332117 235.192336,47.8215328 L235.203832,53.4054745 C235.203832,53.7766423 235.313869,54.2266423 235.755657,54.3448905 C236.197445,54.4631387 237.312591,54.4631387 237.432482,54.4614964 C237.554015,54.4614964 238.687226,54.4614964 239.109307,54.3366788 C239.531387,54.2118613 239.657847,53.760219 239.657847,53.3890511 Z" id="Shape" fill="#FFC832" fill-rule="nonzero"></path>
                        <path d="M236.231934,44.9408759 L236.231934,45.2939781 C236.302744,45.3589889 236.387615,45.4067638 236.479927,45.4335766 C237.110444,45.4885321 237.744917,45.4791773 238.37354,45.4056569 C238.452576,45.3767239 238.527198,45.3369257 238.595255,45.2874088 L238.595255,44.9343066 C238.569044,44.9173801 238.540931,44.9035991 238.511496,44.8932482 C238.511496,44.8932482 238.475365,44.8718978 238.475365,44.8604015 L238.463869,44.4268248 L238.455657,44.1854015 C238.455657,44.0737226 237.989234,43.9833942 237.411131,43.9850365 C236.833029,43.9866788 236.369891,44.0786496 236.371533,44.1903285 L236.358394,44.8817518 C236.314379,44.8972048 236.272016,44.9170109 236.231934,44.9408759 Z" id="Shape" fill="#FFC832" fill-rule="nonzero"></path>
                        <path d="M246.678832,53.325 L246.664051,47.7410584 C246.664051,46.9527372 246.335584,46.7244526 246.036679,46.4271898 C245.887226,46.2793796 245.724635,46.139781 245.598175,46.0346715 C245.488344,45.9469981 245.409021,45.8268643 245.371533,45.6914234 C244.749194,45.7876713 244.116015,45.7909921 243.492701,45.7012774 C243.454434,45.8350348 243.375867,45.9537454 243.267701,46.0412409 C243.141241,46.1463504 242.97865,46.2875912 242.830839,46.4354015 C242.525365,46.7408759 242.208394,46.9724453 242.210036,47.7591241 L242.224818,53.3430657 C242.224818,53.7142336 242.334854,54.1642336 242.778285,54.2808394 C243.221715,54.3974453 244.335219,54.3974453 244.455109,54.3974453 C244.576642,54.3974453 245.709854,54.3974453 246.131934,54.2726277 C246.554015,54.1478102 246.678832,53.6961679 246.678832,53.325 Z" id="Shape" fill="#FFC832" fill-rule="nonzero"></path>
                        <path d="M243.251277,44.8768248 L243.251277,45.229927 C243.322087,45.2949378 243.406958,45.3427127 243.49927,45.3695255 C244.129855,45.4235963 244.764294,45.4136918 245.392883,45.3399635 C245.471919,45.3110305 245.546541,45.2712322 245.614599,45.2217153 L245.614599,44.8686131 C245.588387,44.8516867 245.560274,44.8379057 245.530839,44.8275547 C245.530839,44.8275547 245.494708,44.8062044 245.494708,44.794708 L245.481569,44.3611314 L245.473358,44.119708 C245.473358,44.0080292 245.006934,43.9177007 244.428832,43.9193431 C243.85073,43.9209854 243.389234,44.0129562 243.389234,44.124635 L243.376095,44.8160584 C243.332582,44.8321358 243.290771,44.852491 243.251277,44.8768248 Z" id="Shape" fill="#FFC832" fill-rule="nonzero"></path>
                        <path d="M253.959307,53.0687956 L253.767153,47.484854 C253.740876,46.6981752 253.414051,46.4797445 253.098723,46.1841241 C252.944343,46.0412409 252.770255,45.9065693 252.64708,45.8063869 C252.53551,45.7242914 252.452276,45.6094865 252.408942,45.4779197 C251.790071,45.5936658 251.157448,45.6169117 250.531752,45.5468978 C250.497836,45.6815835 250.423295,45.8025696 250.318248,45.8934307 C250.195073,46.0034672 250.037409,46.1479927 249.894526,46.3023723 C249.598905,46.6177007 249.288504,46.8574818 249.316423,47.6458029 L249.508577,53.2297445 C249.521715,53.6009124 249.644891,54.0509124 250.089964,54.1494526 C250.535036,54.2479927 251.64854,54.2167883 251.770073,54.2118613 C251.891606,54.2118613 253.023175,54.1642336 253.441971,54.0344891 C253.860766,53.9047445 253.972445,53.4383212 253.959307,53.0687956 Z" id="Shape" fill="#FFC832" fill-rule="nonzero"></path>
                        <path d="M250.262409,44.7339416 L250.262409,44.7881387 L250.27062,45.0427007 L250.27062,45.0870438 C250.343189,45.1495393 250.429167,45.1944952 250.521898,45.2184307 C251.153987,45.252252 251.787877,45.2219881 252.413869,45.1281022 C252.491552,45.096714 252.564509,45.0547084 252.630657,45.0032847 L252.630657,44.8390511 L252.630657,44.6583942 C252.603773,44.6424908 252.575108,44.629812 252.545255,44.6206204 C252.545255,44.6206204 252.509124,44.6009124 252.507482,44.5894161 L252.481204,44.1558394 L252.464781,43.9144161 C252.464781,43.8027372 251.991788,43.7288321 251.415328,43.7501825 C250.838869,43.7715328 250.379015,43.8766423 250.382299,43.9883212 L250.392153,44.6797445 C250.347199,44.6934179 250.303732,44.7115749 250.262409,44.7339416 Z" id="Shape" fill="#FFC832" fill-rule="nonzero"></path>
                        <path d="M206.055657,64.5585766 L204.621898,64.6768248 C204.555365,64.7989911 204.500382,64.9271017 204.457664,65.0594891 C204.431387,65.4881387 204.357482,65.4930657 205.081752,65.5259124 C205.060401,65.4339416 205.043978,65.3255474 205.089964,65.2976277 C205.135949,65.269708 205.183577,65.4142336 205.209854,65.5308394 L205.485766,65.5439781 C206.00146,65.5718978 207.394161,65.6868613 207.785036,65.5604015 C208.051095,65.4815693 206.234672,64.7556569 206.055657,64.5585766 Z" id="Shape" fill="#172B4D" fill-rule="nonzero"></path>
                        <path d="M203.705474,64.8361314 L202.266788,64.8903285 C202.197237,65.0100317 202.138958,65.1359377 202.092701,65.2664234 C202.046715,65.6934307 201.97281,65.695073 202.695438,65.7591241 C202.677372,65.6671533 202.667518,65.5571168 202.713504,65.5324818 C202.759489,65.5078467 202.80219,65.6540146 202.82354,65.7706204 L203.099453,65.7968978 C203.613504,65.8478102 204.999635,66.0235401 205.398723,65.9135036 C205.658212,65.8478102 203.874635,65.0364964 203.705474,64.8361314 Z" id="Shape" fill="#172B4D" fill-rule="nonzero"></path>
                        <path d="M204.306569,41.7153285 C203.89927,41.7432482 203.007482,41.5905109 202.871168,40.250365 C202.734854,38.910219 204.275365,38.9578467 205.334672,38.3551095 C206.393978,37.7523723 205.346168,37.6094891 205.57938,38.0266423 C205.812591,38.4437956 206.29708,37.5635036 206.208394,38.2910584 C206.137774,38.8642336 206.666606,39.2140511 206.269161,39.4111314 C206.093431,39.4981752 206.14927,39.4899635 205.994891,39.7100365 C205.666423,40.1813869 205.994891,40.7463504 205.994891,40.7463504 C206.054015,41.0748175 205.275547,41.4032847 205.131022,41.184854 C204.902737,40.8465328 204.979927,40.4359489 204.718796,40.4819343 C204.500365,40.519708 204.122628,40.974635 204.490511,41.2012774 C205.291971,41.6857664 204.306569,41.7153285 204.306569,41.7153285 Z" id="Shape" fill="#172B4D" fill-rule="nonzero"></path>
                        <path d="M205.707482,38.4536496 C205.688632,38.651418 205.62518,38.8423368 205.521898,39.0120438 C205.436496,39.1286496 204.843613,39.5047445 204.416606,39.795438 C204.470575,39.9818649 204.579284,40.1477893 204.72865,40.2717153 C204.751642,40.3932482 204.444526,40.3998175 204.375547,40.3308394 C204.306721,40.2307615 204.224994,40.1401995 204.132482,40.0614964 C204.079,40.0463703 204.023814,40.0380924 203.968248,40.0368613 L203.746533,40.0828467 C203.406569,40.2060219 203.381934,40.4556569 203.488686,40.715146 C203.595438,40.974635 203.961679,41.1175182 204.290146,41.0140511 L204.34927,41.1782847 L204.610401,41.8089416 C204.889599,42.1089416 205.291971,42.1395985 205.817518,41.9009124 C206.605839,41.5428832 206.683029,41.0009124 206.628832,40.6740876 C206.594891,40.4583942 206.287774,39.7182482 205.707482,38.4536496 Z" id="Shape" fill="#FFFFFF"></path>
                        <path d="M204.531569,50.1930657 C204.531569,50.1930657 204.884672,63.6125912 205.047263,64.3631387 L206.494161,64.2990876 C206.623905,63.8835766 206.843978,55.8952555 206.919526,54.2529197 C207.026277,51.9355839 207.172445,50.8040146 207.006569,50.194708 L204.531569,50.1930657 Z" id="Shape" fill="#AEB3B5" fill-rule="nonzero"></path>
                        <path d="M202.539416,50.1355839 C202.539416,50.1355839 202.741423,64.125 202.770985,64.7770073 C202.782482,65.049635 204.577555,64.814781 204.533212,64.5437956 C204.451095,64.1167883 205.12938,52.0620438 205.305109,51.745073 C205.480839,51.4281022 206.958942,51.0881387 206.911314,50.1405109 L202.539416,50.1355839 Z" id="Shape" fill="#D2D3D4" fill-rule="nonzero"></path>
                        <path d="M203.156934,51.8419708 L201.729745,51.5791971 C201.816788,51.1850365 201.296168,50.2817518 200.877372,49.5574818 C200.660584,49.1830292 200.437226,48.7970803 200.248358,48.4078467 C199.555292,47.0020073 200.141606,46.1332117 200.596533,45.8408759 L201.442336,46.9149635 C201.456034,46.9079143 201.468736,46.8990781 201.480109,46.8886861 C201.386496,46.9724453 201.286314,47.2861314 201.577007,47.8740876 C201.741241,48.2206204 201.959672,48.5885036 202.166606,48.9448905 C202.767701,50.0009124 203.340876,50.9928832 203.156934,51.8419708 Z" id="Shape" fill="#FFFFFF" fill-rule="nonzero"></path>
                        <path d="M201.772445,43.8979927 C201.158212,44.6797445 199.576642,45.7751825 199.689964,46.1890511 C199.803285,46.6029197 200.695073,47.2894161 201.085949,47.4470803 C201.476825,47.6047445 203.023905,46.1512774 203.368796,45.6060219 C203.713686,45.0607664 203.60365,44.0260949 202.792336,43.3839416 C202.5,43.1474453 201.953102,43.6680657 201.772445,43.8979927 Z" id="Shape" fill="#BFBFBF" fill-rule="nonzero"></path>
                        <path d="M201.585219,51.7664234 C201.585219,51.7664234 201.319161,52.3773723 201.202555,52.4791971 C201.085949,52.5810219 200.755839,52.1885036 200.608029,52.2213504 C200.460219,52.2541971 200.466788,52.2344891 200.591606,52.3855839 C200.716423,52.5366788 200.821533,52.9357664 201.053102,53.0589416 C201.167213,53.0498635 201.280808,53.081903 201.373358,53.1492701 C201.485036,53.2560219 201.805292,53.3808394 201.931752,53.325 C202.058212,53.2691606 202.495073,52.9538321 202.706934,53.1213504 C202.918796,53.2888686 203.537956,51.5266423 202.989416,51.4970803 C202.612337,51.4669805 202.238635,51.4037809 201.872628,51.3082117 L201.585219,51.7664234 Z" id="Shape" fill="#FFFFFF" fill-rule="nonzero"></path>
                        <path d="M205.994891,43.8405109 C205.994891,43.8405109 206.331569,46.0461679 206.584489,45.7932482 C207.013139,45.3645985 208.960949,45.4844891 209.315693,45.3531022 C209.670438,45.2217153 209.658942,43.8224453 209.020073,43.6631387 C207.541971,43.2968978 205.994891,43.8405109 205.994891,43.8405109 Z" id="Shape" fill="#BFBFBF" fill-rule="nonzero"></path>
                        <path d="M205.994891,43.8405109 C205.994891,43.8405109 207.568248,43.9883212 208.320438,45.4467153 L207.170803,45.5419708" id="Shape" fill="#000000" fill-rule="nonzero" opacity="0.11"></path>
                        <path d="M202.792336,43.3839416 C202.792336,43.3839416 203.72354,45.5649635 202.463869,46.6948905 C202.012226,47.1021898 202.67573,50.1208029 202.695438,50.3572993 C202.715146,50.5937956 206.722445,50.4656934 207.052555,50.4459854 C207.382664,50.4262774 207.267701,44.0556569 207.119891,43.7731752 C206.97208,43.4906934 206.157482,42.9766423 206.157482,42.9766423 L205.116241,43.664781 L203.42792,42.5463504 L202.792336,43.3839416 Z" id="Shape" fill="#BFBFBF" fill-rule="nonzero"></path>
                        <path d="M203.978102,42.725365 C204.198175,42.9208029 204.470803,43.2804745 204.932299,43.434854 C205.393796,43.5892336 205.925912,43.0850365 206.035949,42.8403285 C206.090146,42.7187956 206.351277,43.0144161 206.334854,43.1441606 C206.285584,43.5514599 205.337956,44.1821168 204.889599,44.129562 C204.313139,44.0572993 203.106022,42.7664234 203.106022,42.7664234 C203.07342,42.7434482 203.052357,42.7074876 203.048263,42.667814 C203.04417,42.6281404 203.057447,42.5886368 203.084672,42.5594891 L203.235766,42.4806569 C203.356548,42.4124543 203.504218,42.4124543 203.625,42.4806569 C203.625,42.4806569 203.905839,42.6547445 203.978102,42.725365 Z" id="Shape" fill="#E1E1E1" fill-rule="nonzero"></path>
                        <path d="M208.704745,45.0821168 C208.704745,45.0821168 208.795073,45.3498175 209.673723,45.1346715" id="Shape" fill="#FFFFFF" fill-rule="nonzero"></path>
                        <path d="M209.540693,45.1642336 C208.836131,45.3104015 208.59635,45.1149635 208.630839,44.9540146 C208.665328,44.7930657 209.023358,44.6452555 209.067701,44.4744526 C209.131752,44.2166058 209.330474,43.8717153 209.279562,43.8782847 C209.416253,43.8432555 209.546908,43.7878933 209.667153,43.7140511 C209.957847,43.5498175 210.964599,42.754927 211.342336,42.1981752 C212.015693,41.2127737 212.239051,41.0271898 212.491971,40.5673358 L213.104562,41.4952555 C212.925547,41.615146 212.569161,42.4313869 212.234124,42.8616788 C211.454015,43.8684307 210.903832,44.5483577 210.373358,44.8324818 C210.113667,44.9834921 209.833079,45.0952844 209.540693,45.1642336 Z" id="Shape" fill="#FFFFFF" fill-rule="nonzero"></path>
                        <path d="M203.570803,41.2768248 C203.163504,41.3047445 202.905657,41.0337591 202.767701,39.6936131 C202.629745,38.3534672 203.537956,38.5209854 204.590693,37.9166058 C205.643431,37.3122263 205.814234,36.9903285 206.045803,37.4009124 C206.277372,37.8114964 206.282299,38.1941606 206.136131,38.484854 C205.989964,38.7755474 205.948905,38.7229927 205.750182,38.9775547 C205.630292,39.130292 205.405292,39.0481752 205.257482,39.2682482 C204.929015,39.7395985 205.257482,40.304562 205.257482,40.304562 C205.316606,40.6330292 204.805839,40.8793796 204.694161,40.6461679 C204.529927,40.2914234 204.267153,39.9892336 203.981387,40.0385036 C203.762956,40.0779197 203.385219,40.5312044 203.753102,40.7578467 C203.905839,40.8514599 204.183394,40.8793796 204.275365,40.974635 C204.470803,41.189781 203.570803,41.2768248 203.570803,41.2768248 Z" id="Shape" fill="#172B4D" fill-rule="nonzero"></path>
                        <path d="M212.046898,41.4624088 C212.046898,41.4624088 212.868066,42.0864964 213.373905,41.5790146 C213.817336,41.1355839 213.830474,41.0501825 213.965146,40.979562 C214.099818,40.9089416 214.268978,40.5870438 214.080109,40.6001825 C213.891241,40.6133212 213.699088,40.7775547 213.740146,40.6855839 C213.919161,40.2930657 214.674635,39.6459854 214.659854,39.2074818 C214.645073,38.7689781 214.219708,39.5211679 214.00292,39.5359489 C213.32792,39.5737226 213.275365,39.5786496 212.794161,40.0943431 C212.312956,40.6100365 212.19635,41.0797445 212.014051,41.2653285" id="Shape" fill="#FFFFFF" fill-rule="nonzero"></path>
                        <path d="M172.724453,71.4301095 C172.724453,71.4301095 185.662774,70.4020073 196.515328,73.9281022 C207.367883,77.4541971 194.667701,66.0941606 194.667701,66.0941606 L172.724453,71.4301095 Z" id="Shape" fill="#DBDBDB" fill-rule="nonzero"></path>
                    </g>
                </g>
            </g>
        </g>
    </g>
</svg>